{
    "rows": [
        {
            "id": "1",
            "created_at": "2021-06-07T10:15:32-0300",
            "segment_title": "Motocicletas",
            "segment_id": "11",
            "title": "Release teste CFG",
            "body": "\u003Cp\u003ETexto corpo\u003C\/p\u003E",
            "field_release_image": "\/sites\/default\/files\/2021-06\/33.jpg",
            "type": "Releases",
            "content_url": "\/node\/1"
        },
        {
            "id": "20",
            "created_at": "2021-06-07T07:01:00-0300",
            "segment_title": "Autom\u00f3veis",
            "segment_id": "12",
            "title": "Blandit Utrum",
            "body": "\u003Cp\u003EAcsi meus nutus praemitto premo sit vulpes. At commoveo conventio ludus nulla populus roto tincidunt. Accumsan et nimis. Conventio os refero validus vulputate.\u003C\/p\u003E",
            "field_release_image": "\/sites\/default\/files\/2021-06\/generateImage_uUs1wO.gif",
            "type": "Releases",
            "content_url": "\/node\/20"
        },
        {
            "id": "19",
            "created_at": "2021-06-07T03:00:38-0300",
            "segment_title": "Motocicletas",
            "segment_id": "11",
            "title": "Facilisi Neo Praesent Suscipit",
            "body": "\u003Cp\u003EAbigo augue gilvus iusto loquor pertineo roto turpis verto. Dolus mos praemitto secundum vero. Ea odio torqueo. Haero molior voco. Consectetuer exerci luptatum macto quidne rusticus sagaciter. Eros ille minim ymo.\u003C\/p\u003E",
            "field_release_image": "\/sites\/default\/files\/2021-06\/generateImage_WqLNk8.jpg",
            "type": "Releases",
            "content_url": "\/node\/19"
        },
        {
            "id": "16",
            "created_at": "2021-06-06T21:31:33-0300",
            "segment_title": "Autom\u00f3veis",
            "segment_id": "12",
            "title": "Aptent Nibh Paulatim",
            "body": "\u003Cp\u003EAt augue haero jus populus quidne sit suscipit vicis. Premo proprius ulciscor. Minim probo veniam. Abdo consectetuer exerci genitus gilvus ille iriure suscipere wisi. Adipiscing ludus tincidunt velit. Genitus tamen tego vel. Abluo acsi camur cogo feugiat laoreet neo.",
            "field_release_image": "\/sites\/default\/files\/2021-06\/generateImage_Bis69r.png",
            "type": "Releases",
            "content_url": "\/node\/16"
        },
        {
            "id": "13",
            "created_at": "2021-06-06T11:58:27-0300",
            "segment_title": "Motocicletas",
            "segment_id": "11",
            "title": "Exputo Facilisi Utrum Voco",
            "body": "\u003Cp\u003EDuis facilisi jus ludus saepius. Gilvus ideo imputo sed. Comis roto tego typicus. Abluo nulla persto sed vicis virtus. Aliquip ea hos interdico melior natu occuro rusticus tego vulpes. Abluo bene euismod iustum loquor nisl sagaciter tamen valde ymo. Amet immitto nobis nutus sed torqueo ut.",
            "field_release_image": "\/sites\/default\/files\/2021-06\/generateImage_h5EGgq.gif",
            "type": "Releases",
            "content_url": "\/node\/13"
        },
        {
            "id": "15",
            "created_at": "2021-06-06T07:26:40-0300",
            "segment_title": "Corporativo",
            "segment_id": "10",
            "title": "Odio",
            "body": "\u003Cp\u003EAccumsan inhibeo pala sino. Ad caecus dolor euismod ille nobis saluto vel. Eu gemino haero in olim quis refoveo rusticus saluto vero.\u003C\/p\u003E",
            "field_release_image": "\/sites\/default\/files\/2021-06\/generateImage_UAUvIi.jpg",
            "type": "Releases",
            "content_url": "\/node\/15"
        },
        {
            "id": "11",
            "created_at": "2021-06-06T04:10:25-0300",
            "segment_title": "Autom\u00f3veis",
            "segment_id": "12",
            "title": "Incassum",
            "body": "\u003Cp\u003EAbdo duis iaceo lucidus macto nostrud pecus saepius secundum utinam. Antehabeo duis eu iriure laoreet lucidus premo usitas vereor. Bene blandit damnum hos immitto natu paulatim similis valetudo. Erat gemino immitto luctus sed ullamcorper.\u003C\/p\u003E",
            "field_release_image": "\/sites\/default\/files\/2021-06\/generateImage_dJlwWo.gif",
            "type": "Releases",
            "content_url": "\/node\/11"
        },
        {
            "id": "4",
            "created_at": "2021-06-05T14:19:38-0300",
            "segment_title": "Produtos de for\u00e7a",
            "segment_id": "13",
            "title": "Brevitas Haero Secundum Tincidunt",
            "body": "\u003Cp\u003EAliquam autem facilisi lucidus nulla plaga. Consequat dolor saepius scisco. Abbas diam immitto meus paulatim. Dignissim genitus inhibeo magna metuo modo natu nobis ulciscor. Accumsan aliquip praemitto sagaciter tincidunt wisi.\u003C\/p\u003E",
            "field_release_image": "\/sites\/default\/files\/2021-06\/generateImage_Bis69r.png",
            "type": "Releases",
            "content_url": "\/node\/4"
        },
        {
            "id": "2",
            "created_at": "2021-06-05T01:24:20-0300",
            "segment_title": "Motocicletas",
            "segment_id": "11",
            "title": "Aptent",
            "body": "\u003Cp\u003EEsca ibidem ille jugis loquor vicis. Eros facilisi feugiat ludus macto nunc roto saepius secundum uxor. Augue nunc populus refoveo tamen valetudo. Appellatio commoveo modo mos populus. Aptent eu wisi. Abdo blandit jumentum loquor vulpes.",
            "field_release_image": "\/sites\/default\/files\/2021-06\/generateImage_9tr9H3.png",
            "type": "Releases",
            "content_url": "\/node\/2"
        },
        {
            "id": "9",
            "created_at": "2021-06-04T20:17:59-0300",
            "segment_title": "Motocicletas",
            "segment_id": "11",
            "title": "Diam Jumentum Occuro Odio",
            "body": "\u003Cp\u003EAptent cogo laoreet melior minim nulla secundum. Defui ea exputo ille lucidus nimis nutus proprius quidem. Abico aliquip comis feugiat hendrerit roto sagaciter suscipere venio virtus. Causa exputo feugiat gilvus qui sed vindico. Antehabeo immitto interdico lucidus odio.",
            "field_release_image": "\/sites\/default\/files\/2021-06\/generateImage_5iS40L.jpeg",
            "type": "Releases",
            "content_url": "\/node\/9"
        }
    ],
    "pager": {
        "current_page": 0,
        "total_items": "21",
        "total_pages": 3,
        "items_per_page": 10
    }
}